<?xml version="1.0" encoding="utf-8"?>
<!-- Generator: Adobe Illustrator 22.0.1, SVG Export Plug-In . SVG Version: 6.00 Build 0)  -->
<svg version="1.1" id="Calque_1" xmlns="http://www.w3.org/2000/svg" xmlns:xlink="http://www.w3.org/1999/xlink" x="0px" y="0px"
	 viewBox="0 0 340 92" style="enable-background:new 0 0 340 92;" xml:space="preserve">
<style type="text/css">
	.st0{fill:#4C5B93;}
	.st1{fill:#657EB4;}
	.st2{fill:#60B8F3;}
	.st3{fill:#FFFFFF;}
</style>
<title>logo</title>
<desc>Created with Sketch.</desc>
<g id="Page-1">
	<g id="logo">
		<g id="montagne" transform="translate(0.000000, 22.000000)">
			<path id="Shape" class="st0" d="M64.1,36.7c8,10.5-1.3,10.6-1.3,10.6c0.3-0.4,0,0,0,0H46.4c-0.4,0-0.5-0.3-0.1-0.5
				c3.4-1.7,5-4.8,7.2-7.9c0.6-0.9,1.2-1.8,1.8-2.5c3.2-4.1,5.1-3.1,6-2.8C62.1,34,63.2,35.5,64.1,36.7"/>
			<path id="Shape_1_" class="st1" d="M32.3,23.9c3.2,5.6,7,15.3,10.2,15.5c2.6,0.1,2.9-0.4,5.4-3.9c0.7-0.9,2.6-3.7,3.3-4.5
				c2-2.5,4.3-3.9,6.5-4.6c0.2-0.1,0.3-0.3,0.2-0.5c-5.4-7.2-11-15.4-17.1-23.3c-2.6-3.3-7.1-3.3-10.4,0.2L24,10.6
				c-0.1,0.1-0.1,0.4,0.1,0.5C26.5,12.5,28.4,17.1,32.3,23.9"/>
			<path id="SVGID_11_" class="st2" d="M26.5,29.5c-2.1-3.7-4.6-8.4-6.6-10.1c-0.5-0.5-1.7-0.2-2.6,0.7l-16,18.6c0,0,0,0,0,0.1
				c-2.8,4.4,0.2,9,4.9,9h31.1c0.5,0,0.7-0.6,0.3-0.9C34.4,44.4,30.7,36.9,26.5,29.5"/>
		</g>
		<path id="Shape_2_" class="st3" d="M318,0.1C317.7,0,307.7,0,307.7,0v24.9c-1-0.7-2.1-1.4-3.4-1.9c-2.7-1.2-5.7-1.9-9-1.9
			c-3.3,0-6.4,0.6-9.1,1.9c-2.7,1.2-5,2.9-7,5s-3.5,4.7-4.5,7.6s-1.6,6.2-1.6,9.6c0,3.4,0.5,6.6,1.6,9.5c1,2.9,2.6,5.4,4.5,7.6
			s4.3,3.8,7,5c2.7,1.2,5.7,1.9,9.1,1.9c3.3,0,6.2-0.6,9-1.8c2.7-1.2,5.1-2.8,7-4.9c1.9-2.1,3.4-4.6,4.5-7.6
			c0.1-0.4,0.3-0.8,0.4-1.3c1.2-3.3,1.8-7.2,1.8-11.6V0.1z M202.3,46.8V44V24.6h10.3v24.9v22.7c0,3.1-0.5,5.9-1.6,8.3
			s-2.6,4.5-4.6,6.2c-2,1.7-4.3,3-7,3.9c-2.7,0.9-5.7,1.3-8.9,1.3c-3.2,0-6.2-0.4-8.8-1.3c-2.7-0.9-5-2.2-7-3.9l7-7.6
			c2,2.2,4.9,3.3,8.8,3.3c3.9,0,6.8-1.1,8.8-3.3c2-2.2,3-5.4,3-9.6v-2.7c-0.9,0.5-1.9,0.9-2.9,1.2c-2.7,0.9-5.7,1.3-8.9,1.3
			c-3.2,0-6.2-0.4-8.8-1.3c-2.7-0.9-5-2.2-7-3.9c-2-1.7-3.5-3.8-4.6-6.2c-1.1-2.4-1.7-5.2-1.7-8.3V24.6h0h10.3v22.2
			c0,4.2,1,7.4,3,9.6c2,2.2,4.9,3.3,8.8,3.3c3.9,0,6.8-1.1,8.8-3.3C201.3,54.3,202.3,51,202.3,46.8z M307.6,51.1
			c-0.7,1.8-1.6,3.3-2.7,4.5c-1.1,1.2-2.5,2.2-4.2,2.9c-1.6,0.7-3.4,1.1-5.4,1.1c-2,0-3.8-0.4-5.4-1.1s-3-1.7-4.2-3
			c-1.2-1.3-2.1-2.8-2.7-4.5c-0.6-1.7-1-3.6-1-5.7c0-2.1,0.3-4,1-5.8c0.6-1.8,1.5-3.3,2.7-4.6c1.2-1.3,2.6-2.3,4.2-3
			c1.6-0.7,3.4-1.1,5.4-1.1c2,0,3.7,0.4,5.4,1.1c1.6,0.7,3,1.8,4.2,3.1c1.1,1.3,2.1,2.8,2.7,4.6c0.7,1.8,1,3.7,1,5.7
			C308.6,47.4,308.2,49.3,307.6,51.1z M220.9,41.1c0-3.1,0.6-5.9,1.7-8.3c1.1-2.4,2.7-4.5,4.6-6.2c2-1.7,4.3-3,7-3.9
			s5.6-1.3,8.8-1.3s6.2,0.4,8.9,1.3c2.7,0.9,5.1,2.2,7,3.9c2,1.7,3.5,3.8,4.6,6.2c1.1,2.4,1.6,5.2,1.6,8.3v28.2h-10.3V43.8
			c0-4.2-1-7.4-3-9.6c-2-2.2-4.9-3.3-8.8-3.3c-3.9,0-6.9,1.1-8.8,3.3c-2,2.2-3,5.4-3,9.6v25.5h-10.3V41.1z M101.9,45.1
			c0,0.1,0.1,0.2,0.1,0.3c1.7,4.7,3.2,9.3,4.8,13.2c-0.2-0.1,3.6-11.4,4.5-14.2c0.9-2.7,4-11.6,4.6-13.4c0.7-1.8,1-4.4,5.8-4.4
			c4.9,0,5.4,2.9,5.9,4.4c0.7,2.2,1.4,4.7,2.2,7.1c0.8,2.5,1.6,4.9,2.4,7.3c0.8,2.4,1.6,4.8,2.4,7c0.8,2.3,1.5,4.3,2.1,6.1
			c0.7-2,1.6-4.2,2.5-6.8c0.9-2.5,1.9-5.2,2.9-8c0-0.1,0-0.2,0.1-0.2c0-0.1,0-0.1,0-0.2c1-2.8,1.9-5.6,2.8-8.4
			c0.9-2.8,2.3-7.8,3-10.3h11.5c0,0-0.1,0.4-0.4,1.2c-0.6,2-2.4,7.7-3.1,9.2c-0.8,1.9-10.8,27.9-13.8,34.4h-10.7
			c-0.5-1.2-1.1-2.9-1.9-5.2c-0.8-2.3-1.6-4.8-2.6-7.5c-0.9-2.7-1.9-5.5-2.8-8.4c-0.9-2.9-1.8-5.5-2.6-7.9c-0.8,2.4-9.1,27.8-9.6,29
			h-11.2c-1-1.6-5-11.3-8.8-21.2c-0.1-0.2-0.2-0.4-0.3-0.7c-4.1-10.4-8-21.3-7.9-22.8c0.1,0,11.3,0,11.4,0c0.1,0,0.7,1.9,1.5,4.5
			c1.4,4.8,3.7,12.5,4.9,15.8C101.8,45,101.8,45,101.9,45.1C101.9,45,101.9,45,101.9,45.1z"/>
		<path id="SVGID_9_" class="st2" d="M336.1,4.2L334.4,0h-2.1v7h1.3V1.5h0.1l1.9,4.6h1.2c0.6-1.5,1.3-3.1,1.9-4.6h0.1V7h1.3V0h-2.1
			L336.1,4.2L336.1,4.2z M328,7h1.4V1.1h1.9V0H326v1.1h2V7z"/>
	</g>
</g>
</svg>
